<svg style="position: absolute; width: 0; height: 0;" width="0" height="0" version="1.1" xmlns="http://www.w3.org/2000/svg" xmlns:xlink="http://www.w3.org/1999/xlink">
<defs>
<symbol id="sc-icon2-agenda" viewBox="0 0 1017 1024">
	<title>agenda</title>
	<path class="path1" d="M713.143 921.6h204.8v-204.8h-204.8v204.8zM98.743 921.6h204.8v-204.8h-204.8v204.8zM405.943 921.6h204.8v-204.8h-204.8v204.8zM405.943 614.4h204.8v-204.8h-204.8v204.8zM98.743 614.4h204.8v-204.8h-204.8v204.8zM713.143 614.4h204.8v-204.8h-204.8v204.8zM713.143 102.4v204.8h204.8v-204.8h-204.8zM405.943 307.2h204.8v-204.8h-204.8v204.8zM98.743 307.2h204.8v-204.8h-204.8v204.8z"></path>
</symbol>
<symbol id="sc-icon2-lista" viewBox="0 0 1249 1024">
	<title>lista</title>
	<path class="path1" d="M178.004 139.245h964.665v150.011h-964.665v-150.011z"></path>
	<path class="path2" d="M178.004 782.355h964.665v150.011h-964.665v-150.011z"></path>
	<path class="path3" d="M178.004 460.8h964.665v150.011h-964.665v-150.011z"></path>
</symbol>
<symbol id="sc-icon2-newspaper" viewBox="0 0 1024 1024">
	<title>newspaper</title>
	<path class="path1" d="M896 256v-128h-896v704c0 35.346 28.654 64 64 64h864c53.022 0 96-42.978 96-96v-544h-128zM832 832h-768v-640h768v640zM128 320h640v64h-640zM512 448h256v64h-256zM512 576h256v64h-256zM512 704h192v64h-192zM128 448h320v320h-320z"></path>
</symbol>
</defs>
</svg>
