<?xml version="1.0" standalone="no"?>
<!DOCTYPE svg PUBLIC "-//W3C//DTD SVG 1.1//EN" "http://www.w3.org/Graphics/SVG/1.1/DTD/svg11.dtd" >
<svg xmlns="http://www.w3.org/2000/svg">
<metadata>Generated by IcoMoon</metadata>
<defs>
<font id="sc-icon2" horiz-adv-x="1024">
<font-face units-per-em="1024" ascent="960" descent="-64" />
<missing-glyph horiz-adv-x="1024" />
<glyph unicode="&#x20;" horiz-adv-x="512" d="" />
<glyph unicode="&#xe800;" glyph-name="table2" d="M0 896v-896h1024v896h-1024zM384 320v192h256v-192h-256zM640 256v-192h-256v192h256zM640 768v-192h-256v192h256zM320 768v-192h-256v192h256zM64 512h256v-192h-256v192zM704 512h256v-192h-256v192zM704 576v192h256v-192h-256zM64 256h256v-192h-256v192zM704 64v192h256v-192h-256z" />
<glyph unicode="&#xe801;" glyph-name="agenda" horiz-adv-x="1017" d="M713.143 38.4h204.8v204.8h-204.8v-204.8zM98.743 38.4h204.8v204.8h-204.8v-204.8zM405.943 38.4h204.8v204.8h-204.8v-204.8zM405.943 345.6h204.8v204.8h-204.8v-204.8zM98.743 345.6h204.8v204.8h-204.8v-204.8zM713.143 345.6h204.8v204.8h-204.8v-204.8zM713.143 857.6v-204.8h204.8v204.8h-204.8zM405.943 652.8h204.8v204.8h-204.8v-204.8zM98.743 652.8h204.8v204.8h-204.8v-204.8z" />
<glyph unicode="&#xe802;" glyph-name="lista" horiz-adv-x="1249" d="M178.004 820.755h964.665v-150.011h-964.665v150.011zM178.004 177.645h964.665v-150.011h-964.665v150.011zM178.004 499.2h964.665v-150.011h-964.665v150.011z" />
<glyph unicode="&#xe803;" glyph-name="paragraph-justify" d="M0 896h1024v-128h-1024zM0 704h1024v-128h-1024zM0 512h1024v-128h-1024zM0 320h1024v-128h-1024zM0 128h1024v-128h-1024z" />
<glyph unicode="&#xe804;" glyph-name="cogs" d="M363.722 237.948l41.298 57.816-45.254 45.256-57.818-41.296c-10.722 5.994-22.204 10.774-34.266 14.192l-11.682 70.084h-64l-11.68-70.086c-12.062-3.418-23.544-8.198-34.266-14.192l-57.818 41.298-45.256-45.256 41.298-57.816c-5.994-10.72-10.774-22.206-14.192-34.266l-70.086-11.682v-64l70.086-11.682c3.418-12.060 8.198-23.544 14.192-34.266l-41.298-57.816 45.254-45.256 57.818 41.296c10.722-5.994 22.204-10.774 34.266-14.192l11.682-70.084h64l11.68 70.086c12.062 3.418 23.544 8.198 34.266 14.192l57.818-41.296 45.254 45.256-41.298 57.816c5.994 10.72 10.774 22.206 14.192 34.266l70.088 11.68v64l-70.086 11.682c-3.418 12.060-8.198 23.544-14.192 34.266zM224 96c-35.348 0-64 28.654-64 64s28.652 64 64 64 64-28.654 64-64-28.652-64-64-64zM1024 576v64l-67.382 12.25c-1.242 8.046-2.832 15.978-4.724 23.79l57.558 37.1-24.492 59.128-66.944-14.468c-4.214 6.91-8.726 13.62-13.492 20.13l39.006 56.342-45.256 45.254-56.342-39.006c-6.512 4.766-13.22 9.276-20.13 13.494l14.468 66.944-59.128 24.494-37.1-57.558c-7.812 1.892-15.744 3.482-23.79 4.724l-12.252 67.382h-64l-12.252-67.382c-8.046-1.242-15.976-2.832-23.79-4.724l-37.098 57.558-59.128-24.492 14.468-66.944c-6.91-4.216-13.62-8.728-20.13-13.494l-56.342 39.006-45.254-45.254 39.006-56.342c-4.766-6.51-9.278-13.22-13.494-20.13l-66.944 14.468-24.492-59.128 57.558-37.1c-1.892-7.812-3.482-15.742-4.724-23.79l-67.384-12.252v-64l67.382-12.25c1.242-8.046 2.832-15.978 4.724-23.79l-57.558-37.1 24.492-59.128 66.944 14.468c4.216-6.91 8.728-13.618 13.494-20.13l-39.006-56.342 45.254-45.256 56.342 39.006c6.51-4.766 13.22-9.276 20.13-13.492l-14.468-66.944 59.128-24.492 37.102 57.558c7.81-1.892 15.742-3.482 23.788-4.724l12.252-67.384h64l12.252 67.382c8.044 1.242 15.976 2.832 23.79 4.724l37.1-57.558 59.128 24.492-14.468 66.944c6.91 4.216 13.62 8.726 20.13 13.492l56.342-39.006 45.256 45.256-39.006 56.342c4.766 6.512 9.276 13.22 13.492 20.13l66.944-14.468 24.492 59.13-57.558 37.1c1.892 7.812 3.482 15.742 4.724 23.79l67.382 12.25zM672 468.8c-76.878 0-139.2 62.322-139.2 139.2s62.32 139.2 139.2 139.2 139.2-62.322 139.2-139.2c0-76.878-62.32-139.2-139.2-139.2z" />
<glyph unicode="&#xe900;" glyph-name="logoSc" horiz-adv-x="791" d="M622.058 781.487h121.571l67.91-103.077h-204.336zM20.57 584.427l67.304 90.951h90.345l16.978-90.951zM152.146 803.617l89.132 141.58h289.83l93.983-140.973zM152.146 802.709l155.829-767.020h8.186zM625.394 802.709l-104.291-767.020h-8.186zM20.267 583.819l214.038-489.012 61.847-0.304-2.728 14.248-59.118-2.122zM810.933 678.408l-245.87-603.308-45.778-0.304 0.304 3.942 43.050 1.212zM316.16 35.69h198.576l3.032 9.702-211.31-2.122 1.516-7.58zM234.305 94.807h61.847l11.824-58.512h213.128l5.458 39.715h38.2l14.552 35.471 64.575-101.561c4.548-7.276-0.606-16.978-9.398-16.978h-449.904c-8.186 0-13.642 8.792-9.702 16.068l52.145 102.471 7.276-16.674z" />
<glyph unicode="&#xe901;" glyph-name="power" horiz-adv-x="963" d="M482.271 411.665h-1.101c-35.785 0-64.413 29.178-64.413 64.413v268.112c0 35.785 29.178 64.413 64.413 64.413h1.101c35.785 0 64.413-29.178 64.413-64.413v-268.112c0-35.234-29.178-64.413-64.413-64.413zM598.434 604.903v-1.652c0-17.617 7.157-34.684 19.819-46.796 37.437-36.335 60.559-87.535 59.458-144.241-1.652-105.703-88.086-191.587-193.239-193.239-109.557-1.652-199.295 86.985-199.295 195.991 0 55.604 23.123 105.703 60.009 140.938 12.662 12.112 19.269 29.178 19.269 46.796v1.652c0 57.256-68.817 86.985-110.658 47.346-61.66-59.458-100.748-143.14-100.748-236.731 0-181.677 151.948-330.873 333.626-328.12 178.925 2.753 322.615 148.645 322.615 328.12 0 93.041-38.538 176.723-100.748 236.181-41.29 40.74-110.108 11.011-110.108-46.245z" />
</font></defs></svg>